<?xml version="1.0" encoding="UTF-8" standalone="no"?>
<!-- Created with Inkscape (http://www.inkscape.org/) -->

<svg
   xmlns:dc="http://purl.org/dc/elements/1.1/"
   xmlns:cc="http://creativecommons.org/ns#"
   xmlns:rdf="http://www.w3.org/1999/02/22-rdf-syntax-ns#"
   xmlns:svg="http://www.w3.org/2000/svg"
   xmlns="http://www.w3.org/2000/svg"
   xmlns:sodipodi="http://sodipodi.sourceforge.net/DTD/sodipodi-0.dtd"
   xmlns:inkscape="http://www.inkscape.org/namespaces/inkscape"
   width="210mm"
   height="297mm"
   viewBox="0 0 744.09448819 1052.3622047"
   id="svg2"
   version="1.1"
   inkscape:version="0.91 r13725"
   sodipodi:docname="bull.svg"
   inkscape:export-filename="/home/athithya/bull.png"
   inkscape:export-xdpi="90"
   inkscape:export-ydpi="90">
  <defs
     id="defs4" />
  <sodipodi:namedview
     id="base"
     pagecolor="#ffffff"
     bordercolor="#666666"
     borderopacity="1.0"
     inkscape:pageopacity="0.0"
     inkscape:pageshadow="2"
     inkscape:zoom="0.25371493"
     inkscape:cx="1298.7539"
     inkscape:cy="683.27669"
     inkscape:document-units="px"
     inkscape:current-layer="layer1"
     showgrid="false"
     showguides="true"
     inkscape:window-width="1366"
     inkscape:window-height="719"
     inkscape:window-x="0"
     inkscape:window-y="0"
     inkscape:window-maximized="1" />
  <metadata
     id="metadata7">
    <rdf:RDF>
      <cc:Work
         rdf:about="">
        <dc:format>image/svg+xml</dc:format>
        <dc:type
           rdf:resource="http://purl.org/dc/dcmitype/StillImage" />
        <dc:title></dc:title>
      </cc:Work>
    </rdf:RDF>
  </metadata>
  <g
     inkscape:label="Layer 1"
     inkscape:groupmode="layer"
     id="layer1">
    <path
       style="fill:none;fill-opacity:1;stroke:#000000;stroke-width:4.23549032;stroke-miterlimit:4;stroke-dasharray:none;stroke-opacity:1"
       d="m 221.37852,344.1386 c -5.96995,10.31587 -4.25271,-12.31373 0.2009,-0.62554 20.02472,52.55347 22.5152,70.79535 28.11402,75.46672 17.36261,14.48646 36.70387,24.86612 68.5603,20.64465 33.88517,-4.49031 70.9853,-12.91439 80.07245,-30.07281 7.8574,-14.83641 22.60933,-49.92184 24.02911,-64.38208 2.70098,-27.50904 84.17672,12.81333 83.94899,15.83944 15.11667,86.10131 -1.09482,165.9528 -18.47934,245.55232 -0.73168,9.72256 -7.84932,17.59937 -17.59937,17.59937 l -79.7457,0 -38.71862,-114.21989 -72.1574,-1.75994 -57.37394,115.97983 -62.85031,0 c -9.75006,0 -15.68269,-8.03956 -17.59938,-17.59937 C 126.28005,529.2515 116.00285,450.20071 120.30901,366.28879 121.24719,348.0069 234.0626,322.22091 221.37852,344.1386 Z"
       id="rect4169"
       inkscape:connector-curvature="0"
       sodipodi:nodetypes="ssssssccsccccssss" />
    <path
       sodipodi:nodetypes="ssscscccccscs"
       inkscape:connector-curvature="0"
       id="path4173"
       d="m 231.57645,211.00587 c 71.35744,16.96685 118.66862,20.55425 179.77407,0 6.73349,-2.26499 32.26168,7.15863 30.7764,14.10587 l -9.60052,73.71701 -29.75367,110.35766 c -3.84472,14.26022 -19.96121,12.82353 -12.8235,12.82353 -29.48347,12.5752 -15.26722,9.08614 -39.65807,15.51643 l -52.57635,-1.28234 c -25.51415,-5.34781 -10.97617,-1.4106 -43.07001,-14.23409 -7.10422,0 -11.29382,-5.88595 -12.82351,-12.82353 -12.25441,-34.01133 -24.36847,-58.54806 -31.01108,-93.47403 -4.82639,-25.3765 -5.03135,-60.93758 -8.72781,-86.75359 -1.00695,-7.03252 22.58252,-19.59628 29.49405,-17.95292 z"
       style="fill:none;fill-opacity:1;stroke:#000000;stroke-width:3.08612323;stroke-miterlimit:4;stroke-dasharray:none;stroke-opacity:1" />
    <path
       style="color:#000000;font-style:normal;font-variant:normal;font-weight:normal;font-stretch:normal;font-size:medium;line-height:normal;font-family:sans-serif;text-indent:0;text-align:start;text-decoration:none;text-decoration-line:none;text-decoration-style:solid;text-decoration-color:#000000;letter-spacing:normal;word-spacing:normal;text-transform:none;direction:ltr;block-progression:tb;writing-mode:lr-tb;baseline-shift:baseline;text-anchor:start;white-space:normal;clip-rule:nonzero;display:inline;overflow:visible;visibility:visible;opacity:1;isolation:auto;mix-blend-mode:normal;color-interpolation:sRGB;color-interpolation-filters:linearRGB;solid-color:#000000;solid-opacity:1;fill:#000000;fill-opacity:1;fill-rule:nonzero;stroke:none;stroke-width:2.33335662;stroke-linecap:butt;stroke-linejoin:miter;stroke-miterlimit:4;stroke-dasharray:none;stroke-dashoffset:0;stroke-opacity:1;color-rendering:auto;image-rendering:auto;shape-rendering:auto;text-rendering:auto;enable-background:accumulate"
       d="m 248.31445,290.39062 2.72461,0.82813 c 21.55578,10.1513 32.14428,6.22002 53.23047,-1.44727 l 0,-2.77539 c -24.9719,-13.23338 -32.53276,-8.87406 -55.95508,3.39453 z m 52.97657,-2.01953 c -25.51038,10.43542 -21.6166,9.12438 -46.84961,1.44532 19.02328,-13.52629 26.33214,-9.14014 46.84961,-1.44532 z"
       id="rect4194"
       inkscape:connector-curvature="0"
       sodipodi:nodetypes="cccccccc" />
    <path
       sodipodi:nodetypes="cccc"
       inkscape:connector-curvature="0"
       id="path4197"
       d="m 336.38299,290.1028 c 21.19093,-14.97257 28.94559,-10.84102 51.72465,-2.29887 l 0,1.14943 c -27.89025,11.49346 -23.89949,9.61797 -51.72465,1.14944 z"
       style="fill:none;fill-opacity:1;stroke:#000000;stroke-width:2.33335662;stroke-miterlimit:4;stroke-dasharray:none;stroke-opacity:1" />
    <g
       transform="matrix(0.61597786,0,0,0.61597786,766.05035,-79.177743)"
       id="g4199">
      <ellipse
         style="fill:none;fill-opacity:1;stroke:#000000;stroke-width:5.80000019;stroke-miterlimit:4;stroke-dasharray:none;stroke-opacity:1"
         id="ellipse4201"
         cx="-775.71429"
         cy="763.79077"
         rx="12.857142"
         ry="14.285714" />
      <ellipse
         ry="14.285714"
         rx="12.857142"
         cy="763.79077"
         cx="-653.71429"
         id="ellipse4203"
         style="fill:none;fill-opacity:1;stroke:#000000;stroke-width:5.80000019;stroke-miterlimit:4;stroke-dasharray:none;stroke-opacity:1" />
    </g>
    <path
       sodipodi:nodetypes="ccccc"
       inkscape:connector-curvature="0"
       id="path4207"
       d="m 265.29043,73.100712 2.15547,-1.24446 c -22.29818,39.291018 -20.64698,99.499268 11.1587,148.751608 l -47.26565,-7.19873 C 209.6564,178.28003 211.14852,125.95605 265.29043,73.100712 Z"
       style="fill:none;fill-opacity:1;stroke:#000000;stroke-width:3.57267165;stroke-miterlimit:4;stroke-dasharray:none;stroke-opacity:1" />
    <path
       style="fill:none;fill-opacity:1;stroke:#000000;stroke-width:3.57267165;stroke-miterlimit:4;stroke-dasharray:none;stroke-opacity:1"
       d="m 375.61728,74.188363 -2.15547,-1.24446 c 22.29817,39.291027 20.64698,99.499257 -11.15871,148.751617 l 51.45455,-11.96519 c 21.68256,-35.1291 16.00154,-82.68663 -38.14037,-135.541967 z"
       id="path4211"
       inkscape:connector-curvature="0"
       sodipodi:nodetypes="ccccc" />
    <g
       id="g4156"
       transform="matrix(0.7216002,0,0,0.73514685,1242.7713,11.322456)"
       style="fill:none;stroke:#000000">
      <path
         sodipodi:nodetypes="ccccccccssccc"
         inkscape:connector-curvature="0"
         id="rect4403"
         d="m -1481.4767,836.68806 68.661,-0.58102 80.5124,-160.71341 98.0498,0.59994 48.2675,158.71543 100.8538,-1.6007 c 13.1709,127.20165 46.1943,247.7777 76.7695,371.6305 -52.6764,-0.4202 -22.4319,4.3671 -191.5002,-1.2474 -14.7404,-11.9592 -4.9276,-218.40073 -33.5586,-207.86393 -19.7781,7.27883 -62.8957,-4.9645 -80.355,1.6954 -16.5471,6.31193 -9.1643,163.29133 -16.316,200.61813 -38.2441,8.5538 -118.9485,13.6328 -206.5426,7.1595 29.2499,-121.6117 43.632,-244.39163 55.1584,-368.41244 z"
         style="fill:none;fill-opacity:1;stroke:#000000;stroke-width:5.80000019;stroke-miterlimit:4;stroke-dasharray:none;stroke-opacity:1" />
      <flowRoot
         transform="matrix(1.4193289,0,0,1.4193289,1667.0392,-347.48974)"
         style="font-style:normal;font-variant:normal;font-weight:normal;font-stretch:normal;font-size:40px;line-height:125%;font-family:'Nimbus Sans L';-inkscape-font-specification:'Nimbus Sans L';letter-spacing:0px;word-spacing:0px;fill:none;fill-opacity:1;stroke:#000000;stroke-width:1px;stroke-linecap:butt;stroke-linejoin:miter;stroke-opacity:1"
         id="flowRoot4448"
         xml:space="preserve"><flowRegion
           id="flowRegion4450"><rect
             style="font-style:normal;font-variant:normal;font-weight:normal;font-stretch:normal;font-family:'Nimbus Sans L';-inkscape-font-specification:'Nimbus Sans L';fill:none;stroke:#000000"
             y="837.70142"
             x="-2170.7568"
             height="110.01364"
             width="939.14081"
             id="rect4452" /></flowRegion><flowPara
           id="flowPara4454">ANSIBULL</flowPara></flowRoot>    </g>
    <path
       sodipodi:nodetypes="ccsssccsccccsssc"
       inkscape:connector-curvature="0"
       id="path5441"
       d="m 947.49412,344.1386 c -2.34144,-20.01782 16.01744,58.99288 32.74911,74.84118 18.34786,7.58895 36.06787,16.66952 67.57487,17.68859 30.0668,0.97248 73.9413,-6.01689 83.0284,-23.17532 7.8575,-14.83641 15.2191,-54.35595 19.1024,-67.33814 7.9214,-26.48197 87.1328,11.82796 86.9051,14.85407 15.1167,86.10131 -1.0948,165.95281 -18.4793,245.55233 -0.7317,9.72256 -7.8494,17.59935 -17.5995,17.59935 l -79.7456,0 -38.7186,-114.21988 -72.1574,-1.75993 -57.37387,115.97981 -62.8505,0 c -9.75,0 -15.6825,-8.03955 -17.5992,-17.59935 -15.5002,-77.30981 -25.7774,-156.36061 -21.4713,-240.27252 0.9382,-18.2819 109.31949,-44.06788 96.63539,-22.15019 z"
       style="fill:#cccccc;fill-opacity:1;stroke:#000000;stroke-width:4.23549032;stroke-miterlimit:4;stroke-dasharray:none;stroke-opacity:1" />
    <path
       sodipodi:nodetypes="cccccccc"
       inkscape:connector-curvature="0"
       id="path5524"
       d="m 981.29885,290.39062 2.72461,0.82813 c 21.55574,10.1513 32.14424,6.22002 53.23044,-1.44727 l 0,-2.77539 c -24.9719,-13.23338 -32.5327,-8.87406 -55.95505,3.39453 z m 52.97655,-2.01953 c -25.5104,10.43542 -21.6166,9.12438 -46.84959,1.44532 19.02329,-13.52629 26.33209,-9.14014 46.84959,-1.44532 z"
       style="color:#000000;font-style:normal;font-variant:normal;font-weight:normal;font-stretch:normal;font-size:medium;line-height:normal;font-family:sans-serif;text-indent:0;text-align:start;text-decoration:none;text-decoration-line:none;text-decoration-style:solid;text-decoration-color:#000000;letter-spacing:normal;word-spacing:normal;text-transform:none;direction:ltr;block-progression:tb;writing-mode:lr-tb;baseline-shift:baseline;text-anchor:start;white-space:normal;clip-rule:nonzero;display:inline;overflow:visible;visibility:visible;opacity:1;isolation:auto;mix-blend-mode:normal;color-interpolation:sRGB;color-interpolation-filters:linearRGB;solid-color:#000000;solid-opacity:1;fill:#000000;fill-opacity:1;fill-rule:nonzero;stroke:none;stroke-width:2.33335662;stroke-linecap:butt;stroke-linejoin:miter;stroke-miterlimit:4;stroke-dasharray:none;stroke-dashoffset:0;stroke-opacity:1;color-rendering:auto;image-rendering:auto;shape-rendering:auto;text-rendering:auto;enable-background:accumulate" />
    <path
       style="fill:none;fill-opacity:1;stroke:#000000;stroke-width:2.33335662;stroke-miterlimit:4;stroke-dasharray:none;stroke-opacity:1"
       d="m 1069.3674,290.1028 c 21.1909,-14.97257 28.9456,-10.84102 51.7246,-2.29887 l 0,1.14943 c -27.8902,11.49346 -23.8995,9.61797 -51.7246,1.14944 z"
       id="path5526"
       inkscape:connector-curvature="0"
       sodipodi:nodetypes="cccc" />
    <path
       style="fill:none;fill-opacity:1;stroke:#000000;stroke-width:3.08612323;stroke-miterlimit:4;stroke-dasharray:none;stroke-opacity:1"
       d="m 962.12627,211.00587 c 71.35743,16.96685 118.66863,20.55425 179.77403,0 6.7335,-2.26499 32.2617,7.15863 30.7764,14.10587 l -9.6005,73.71701 -29.7536,110.35766 c -3.8448,14.26022 -19.9613,12.82353 -12.8236,12.82353 -29.4834,12.5752 -15.2672,9.08614 -39.658,15.51643 l -52.5764,-1.28234 c -25.5141,-5.34781 -10.9761,-1.4106 -43.06998,-14.23409 -7.10422,0 -11.29382,-5.88595 -12.82351,-12.82353 -12.25441,-34.01133 -24.36847,-58.54806 -31.01108,-93.47403 -4.82639,-25.3765 -5.03135,-60.93758 -8.72781,-86.75359 -1.00695,-7.03252 22.58252,-19.59628 29.49405,-17.95292 z"
       id="path5445"
       inkscape:connector-curvature="0"
       sodipodi:nodetypes="ssscscccccscs" />
    <g
       id="g5451"
       transform="matrix(0.61597786,0,0,0.61597786,1496.6002,-79.177743)">
      <ellipse
         ry="14.285714"
         rx="12.857142"
         cy="763.79077"
         cx="-775.71429"
         id="ellipse5453"
         style="fill:none;fill-opacity:1;stroke:#000000;stroke-width:5.80000019;stroke-miterlimit:4;stroke-dasharray:none;stroke-opacity:1" />
      <ellipse
         style="fill:none;fill-opacity:1;stroke:#000000;stroke-width:5.80000019;stroke-miterlimit:4;stroke-dasharray:none;stroke-opacity:1"
         id="ellipse5455"
         cx="-653.71429"
         cy="763.79077"
         rx="12.857142"
         ry="14.285714" />
    </g>
    <path
       style="fill:#cccccc;fill-opacity:1;stroke:#000000;stroke-width:3.57267165;stroke-miterlimit:4;stroke-dasharray:none;stroke-opacity:1"
       d="m 995.84025,73.100712 2.15547,-1.24446 c -22.29818,39.291018 -20.64698,99.499268 11.15868,148.751608 l -47.26563,-7.19873 c -21.68255,-35.1291 -20.19043,-87.45308 33.95148,-140.308418 z"
       id="path5459"
       inkscape:connector-curvature="0"
       sodipodi:nodetypes="ccccc" />
    <path
       sodipodi:nodetypes="ccccc"
       inkscape:connector-curvature="0"
       id="path5461"
       d="m 1106.1671,74.188363 -2.1555,-1.24446 c 22.2982,39.291027 20.647,99.499257 -11.1587,148.751617 l 51.4546,-11.96519 c 21.6825,-35.1291 16.0015,-82.68663 -38.1404,-135.541967 z"
       style="fill:#cccccc;fill-opacity:1;stroke:#000000;stroke-width:3.57267165;stroke-miterlimit:4;stroke-dasharray:none;stroke-opacity:1" />
    <g
       style="fill:#cccccc;stroke:#000000"
       transform="matrix(0.72160019,0,0,0.73514684,1973.321,11.322462)"
       id="g5463">
      <path
         style="fill:#cccccc;fill-opacity:1;stroke:#000000;stroke-width:5.80000019;stroke-miterlimit:4;stroke-dasharray:none;stroke-opacity:1"
         d="m -1481.4767,836.68806 68.661,-0.58102 80.5124,-160.71341 98.0498,0.59994 48.2675,158.71543 100.8538,-1.6007 c 13.1709,127.20165 46.1943,247.7777 76.7695,371.6305 -52.6764,-0.4202 -22.4319,4.3671 -191.5002,-1.2474 -14.7404,-11.9592 -4.9276,-218.40073 -33.5586,-207.86393 -19.7781,7.27883 -62.8957,-4.9645 -80.355,1.6954 -16.5471,6.31193 -9.1643,163.29133 -16.316,200.61813 -38.2441,8.5538 -118.9485,13.6328 -206.5426,7.1595 29.2499,-121.6117 43.632,-244.39163 55.1584,-368.41244 z"
         id="path5465"
         inkscape:connector-curvature="0"
         sodipodi:nodetypes="ccccccccssccc" />
      <flowRoot
         xml:space="preserve"
         id="flowRoot5467"
         style="font-style:normal;font-variant:normal;font-weight:normal;font-stretch:normal;font-size:40px;line-height:125%;font-family:'Nimbus Sans L';-inkscape-font-specification:'Nimbus Sans L';letter-spacing:0px;word-spacing:0px;fill:#cccccc;fill-opacity:1;stroke:#000000;stroke-width:1px;stroke-linecap:butt;stroke-linejoin:miter;stroke-opacity:1"
         transform="matrix(1.4193289,0,0,1.4193289,1667.0392,-347.48974)"><flowRegion
           id="flowRegion5469"><rect
             id="rect5471"
             width="939.14081"
             height="110.01364"
             x="-2170.7568"
             y="837.70142"
             style="font-style:normal;font-variant:normal;font-weight:normal;font-stretch:normal;font-family:'Nimbus Sans L';-inkscape-font-specification:'Nimbus Sans L';fill:#cccccc;stroke:#000000" /></flowRegion><flowPara
           id="flowPara5473">ANSIBULL</flowPara></flowRoot>    </g>
    <path
       style="fill:none;fill-rule:evenodd;stroke:#000000;stroke-width:4.8;stroke-linecap:round;stroke-linejoin:miter;stroke-opacity:1;stroke-miterlimit:4;stroke-dasharray:none"
       d="m 270.48074,410.89423 35.47288,8.1292 34.48752,0 36.95092,-10.09992 0,0"
       id="path5520"
       inkscape:connector-curvature="0" />
    <path
       inkscape:connector-curvature="0"
       id="path5537"
       d="m 1003.5284,410.89423 35.4729,8.1292 34.4875,0 36.9509,-10.09992 0,0"
       style="fill:none;fill-rule:evenodd;stroke:#000000;stroke-width:4.80000019;stroke-linecap:round;stroke-linejoin:miter;stroke-miterlimit:4;stroke-dasharray:none;stroke-opacity:1" />
  </g>
</svg>
